…
    ## file path:          /Users/jessica/Library/Caches/rnoaa/ghcnd/USS0023B17S.dly

    ## file last updated:  2019-09-26 10:27:35

    ## file min/max dates: 1999-09-01 / 2019-09-30

## `group_by` and counting

``` r
weather_df %>% 
  group_by(name, month)
```

    ## # A tibble: 1,095 x 7
    ## # Groups:   name, month [36]
    ##    name           id          date       month       prcp  tmax  tmin
    ##    <chr>          <chr>       <date>     <date>     <dbl> <dbl> <dbl>
    ##  1 CentralPark_NY USW00094728 2017-01-01 2017-01-01     0   8.9   4.4
    ##  2 CentralPark_NY USW00094728 2017-01-02 2017-01-01    53   5     2.8
    ##  3 CentralPark_NY USW00094728 2017-01-03 2017-01-01   147   6.1   3.9
    ##  4 CentralPark_NY USW00094728 2017-01-04 2017-01-01     0  11.1   1.1
    ##  5 CentralPark_NY USW00094728 2017-01-05 2017-01-01     0   1.1  -2.7
    ##  6 CentralPark_NY USW00094728 2017-01-06 2017-01-01    13   0.6  -3.8
    ##  7 CentralPark_NY USW00094728 2017-01-07 2017-01-01    81  -3.2  -6.6
    ##  8 CentralPark_NY USW00094728 2017-01-08 2017-01-01     0  -3.8  -8.8
    ##  9 CentralPark_NY USW00094728 2017-01-09 2017-01-01     0  -4.9  -9.9
    ## 10 CentralPark_NY USW00094728 2017-01-10 2017-01-01     0   7.8  -6  
    ## # … with 1,085 more rows

``` r
weather_df %>% 
  group_by(name, month) %>% 
  summarize(n_obs = n())
```

    ## # A tibble: 36 x 3
    ## # Groups:   name [3]
    ##    name           month      n_obs
    ##    <chr>          <date>     <int>
    ##  1 CentralPark_NY 2017-01-01    31
    ##  2 CentralPark_NY 2017-02-01    28
    ##  3 CentralPark_NY 2017-03-01    31
    ##  4 CentralPark_NY 2017-04-01    30
    ##  5 CentralPark_NY 2017-05-01    31
    ##  6 CentralPark_NY 2017-06-01    30
    ##  7 CentralPark_NY 2017-07-01    31
    ##  8 CentralPark_NY 2017-08-01    31
    ##  9 CentralPark_NY 2017-09-01    30
    ## 10 CentralPark_NY 2017-10-01    31
    ## # … with 26 more rows
…
### ungrouping

``` r
weather_df %>% 
  group_by(name) %>% 
  ungroup()
```

    ## # A tibble: 1,095 x 7
    ##    name           id          date       month       prcp  tmax  tmin
    ##    <chr>          <chr>       <date>     <date>     <dbl> <dbl> <dbl>
    ##  1 CentralPark_NY USW00094728 2017-01-01 2017-01-01     0   8.9   4.4
    ##  2 CentralPark_NY USW00094728 2017-01-02 2017-01-01    53   5     2.8
    ##  3 CentralPark_NY USW00094728 2017-01-03 2017-01-01   147   6.1   3.9
    ##  4 CentralPark_NY USW00094728 2017-01-04 2017-01-01     0  11.1   1.1
    ##  5 CentralPark_NY USW00094728 2017-01-05 2017-01-01     0   1.1  -2.7
    ##  6 CentralPark_NY USW00094728 2017-01-06 2017-01-01    13   0.6  -3.8
    ##  7 CentralPark_NY USW00094728 2017-01-07 2017-01-01    81  -3.2  -6.6
    ##  8 CentralPark_NY USW00094728 2017-01-08 2017-01-01     0  -3.8  -8.8
    ##  9 CentralPark_NY USW00094728 2017-01-09 2017-01-01     0  -4.9  -9.9
    ## 10 CentralPark_NY USW00094728 2017-01-10 2017-01-01     0   7.8  -6  
    ## # … with 1,085 more rows
…
``` r
# look at ?min_rank for description of windowed rank functions

weather_df %>% 
  group_by(name, month) %>% 
  mutate(
    tmax_rank = min_rank(tmax),
    tmax_rank_desc = min_rank(desc(tmax))
  ) %>% 
  arrange(name, month, tmax_rank) %>% 
  filter(tmax_rank == 1) # to get the coldest day in each location in each month
```

    ## # A tibble: 42 x 9
    ## # Groups:   name, month [36]
    ##    name  id    date       month       prcp  tmax  tmin tmax_rank
    ##    <chr> <chr> <date>     <date>     <dbl> <dbl> <dbl>     <int>
    ##  1 Cent… USW0… 2017-01-09 2017-01-01     0  -4.9  -9.9         1
    ##  2 Cent… USW0… 2017-02-10 2017-02-01     0   0    -7.1         1
    ##  3 Cent… USW0… 2017-03-15 2017-03-01     0  -3.2  -6.6         1
    ##  4 Cent… USW0… 2017-04-01 2017-04-01     0   8.9   2.8         1
    ##  5 Cent… USW0… 2017-05-13 2017-05-01   409  11.7   7.2         1
    ##  6 Cent… USW0… 2017-06-06 2017-06-01    15  14.4  11.1         1
    ##  7 Cent… USW0… 2017-07-25 2017-07-01     0  21.7  16.7         1
    ##  8 Cent… USW0… 2017-08-29 2017-08-01    74  20    16.1         1
    ##  9 Cent… USW0… 2017-09-30 2017-09-01     0  18.9  12.2         1
    ## 10 Cent… USW0… 2017-10-31 2017-10-01     0  13.9   7.2         1
    ## # … with 32 more rows, and 1 more variable: tmax_rank_desc <int>
…
